[gd_scene load_steps=6 format=3 uid="uid://bv0ewae06x0k8"]

[ext_resource type="StyleBox" uid="uid://bngrrit777kwd" path="res://huds/new_style_box_flat.tres" id="1_gxlg1"]
[ext_resource type="Script" path="res://scripts/main_menu_screen.gd" id="1_tm0pi"]
[ext_resource type="LabelSettings" uid="uid://comcs5rv3sty2" path="res://label settings/large_fluffy_font.tres" id="2_n4wd3"]
[ext_resource type="Texture2D" uid="uid://dagyn3val8vb4" path="res://assets/textures/bg tile.png" id="2_w1var"]
[ext_resource type="FontFile" uid="uid://ct1pns1qwnmg5" path="res://assets/fonts/MountainsofChristmas-Bold.ttf" id="3_8s2sg"]

[node name="MainMenuScreen" type="Control"]
layout_mode = 3
anchors_preset = 15
anchor_right = 1.0
anchor_bottom = 1.0
grow_horizontal = 2
grow_vertical = 2
script = ExtResource("1_tm0pi")

[node name="TextureRect" type="TextureRect" parent="."]
texture_filter = 1
layout_mode = 0
offset_right = 659.0
offset_bottom = 373.0
texture = ExtResource("2_w1var")
stretch_mode = 1

[node name="Panel" type="Panel" parent="."]
layout_mode = 1
anchors_preset = 8
anchor_left = 0.5
anchor_top = 0.5
anchor_right = 0.5
anchor_bottom = 0.5
offset_left = -183.0
offset_top = -98.5
offset_right = 183.0
offset_bottom = 98.5
grow_horizontal = 2
grow_vertical = 2
theme_override_styles/panel = ExtResource("1_gxlg1")

[node name="Snowman Frenzy" type="Label" parent="Panel"]
texture_filter = 1
layout_mode = 1
anchors_preset = 8
anchor_left = 0.5
anchor_top = 0.5
anchor_right = 0.5
anchor_bottom = 0.5
offset_left = -145.0
offset_top = -54.0
offset_right = 144.0
offset_bottom = -13.0
grow_horizontal = 2
grow_vertical = 2
text = "Snowman Frenzy"
label_settings = ExtResource("2_n4wd3")
horizontal_alignment = 1

[node name="PlayButton" type="Button" parent="Panel"]
texture_filter = 1
layout_mode = 1
anchors_preset = 8
anchor_left = 0.5
anchor_top = 0.5
anchor_right = 0.5
anchor_bottom = 0.5
offset_left = -45.0
offset_top = 2.0
offset_right = 43.0
offset_bottom = 33.0
grow_horizontal = 2
grow_vertical = 2
theme_override_fonts/font = ExtResource("3_8s2sg")
text = "Play"

[connection signal="pressed" from="Panel/PlayButton" to="." method="_on_play_button_pressed"]
