[gd_scene load_steps=6 format=3 uid="uid://dhbiww18ejlj1"]

[ext_resource type="Script" path="res://scripts/audio_player.gd" id="1_5kqwk"]
[ext_resource type="AudioStream" uid="uid://dv3f5udodqepo" path="res://assets/sounds/Snowman melt sound WAV.wav" id="1_xsa2u"]
[ext_resource type="AudioStream" uid="uid://c4e66ef2vkt3o" path="res://assets/sounds/Blow dryer sound WAV.wav" id="3_b10tc"]
[ext_resource type="AudioStream" uid="uid://cx4p33emvyg12" path="res://resources/new_audio_stream_randomizer_walk.tres" id="4_yvnq6"]
[ext_resource type="AudioStream" uid="uid://b3fredo8y311s" path="res://assets/sounds/Snowman melt sound no moan WAV.wav" id="5_h176v"]

[node name="sfx" type="Node2D"]
script = ExtResource("1_5kqwk")

[node name="snowmanmelt" type="AudioStreamPlayer2D" parent="."]
stream = ExtResource("1_xsa2u")
volume_db = -5.0
max_polyphony = 10

[node name="blowdryer" type="AudioStreamPlayer2D" parent="."]
stream = ExtResource("3_b10tc")
max_polyphony = 10

[node name="walk" type="AudioStreamPlayer" parent="."]
stream = ExtResource("4_yvnq6")
volume_db = -20.0

[node name="snowmanmelt_nomoan" type="AudioStreamPlayer" parent="."]
stream = ExtResource("5_h176v")
volume_db = -5.0
